<svg width="20" height="20" viewBox="0 0 20 20" fill="#333333" xmlns="http://www.w3.org/2000/svg">
<path fill-rule="evenodd" clip-rule="evenodd" d="M4.16699 3.33341C3.94598 3.33341 3.73402 3.42121 3.57774 3.57749C3.42146 3.73377 3.33366 3.94573 3.33366 4.16675V15.8334C3.33366 16.0544 3.42146 16.2664 3.57774 16.4227C3.73402 16.579 3.94598 16.6667 4.16699 16.6667H7.50033C7.96056 16.6667 8.33366 17.0398 8.33366 17.5001C8.33366 17.9603 7.96056 18.3334 7.50033 18.3334H4.16699C3.50395 18.3334 2.86807 18.07 2.39923 17.6012C1.93038 17.1323 1.66699 16.4965 1.66699 15.8334V4.16675C1.66699 3.50371 1.93038 2.86782 2.39923 2.39898C2.86807 1.93014 3.50395 1.66675 4.16699 1.66675H7.50033C7.96056 1.66675 8.33366 2.03984 8.33366 2.50008C8.33366 2.96032 7.96056 3.33341 7.50033 3.33341H4.16699Z" fill="#333333"/>
<path fill-rule="evenodd" clip-rule="evenodd" d="M12.7441 5.24408C13.0695 4.91864 13.5972 4.91864 13.9226 5.24408L18.0893 9.41074C18.4147 9.73618 18.4147 10.2638 18.0893 10.5893L13.9226 14.7559C13.5972 15.0814 13.0695 15.0814 12.7441 14.7559C12.4186 14.4305 12.4186 13.9028 12.7441 13.5774L16.3215 10L12.7441 6.42259C12.4186 6.09715 12.4186 5.56951 12.7441 5.24408Z" fill="#333333"/>
<path fill-rule="evenodd" clip-rule="evenodd" d="M6.66699 10.0001C6.66699 9.53984 7.04009 9.16675 7.50033 9.16675H17.5003C17.9606 9.16675 18.3337 9.53984 18.3337 10.0001C18.3337 10.4603 17.9606 10.8334 17.5003 10.8334H7.50033C7.04009 10.8334 6.66699 10.4603 6.66699 10.0001Z" fill="#333333"/>
</svg>
