<svg width="9" height="14" viewBox="0 0 9 14" fill="none" xmlns="http://www.w3.org/2000/svg">
<path fill-rule="evenodd" clip-rule="evenodd" d="M5.9394 7L0.469727 1.53033L1.53039 0.469666L8.06072 7L1.53039 13.5303L0.469727 12.4697L5.9394 7Z" fill="#333333"/>
</svg>
